{
  "header": {
    "file_name": "resources.json",
    "last_update": "08/10/2019 13:08",
    "version": 1.0,
    "author": "TicTacToe Group",
    "description": "Ressources description. List all ressources and his options."
  },
  "resources": {
    "id": "Resources",
    "steel": {
      "id": "Resources.Steel",
      "name": "Steel"
    },
    "gold": {
      "id": "Resources.Gold",
      "name": "Gold"
    },
    "wood": {
      "id": "Resources.Wood",
      "name": "Wood"
    }
  }
}